"Name","ID","Name","State","Notes","User","Tags","Created","Runtime","Sweep","__cached__setup_devices","adam_epsilon","dataloader_drop_last","do_eval","do_predict","do_test","do_train","evaluate_during_training","fp16","fp16_opt_level","gradient_accumulation_steps","learning_rate","local_rank","logging_dir","logging_first_step","logging_steps","max_grad_norm","max_steps","no_cuda","num_train_epochs","output_dir","overwrite_output_dir","per_device_eval_batch_size","per_device_train_batch_size","save_steps","seed","subset_size","tpu_metrics_debug","wandb_name","warmup_steps","weight_decay","epoch","eval_acc","eval_loss","learning_rate","loss"
"distilbert-base-cased_10onybb5","10onybb5","distilbert-base-cased_10onybb5","finished","-","antonmu","","2020-07-02T21:04:46.000Z","921","","[""cuda:0"",1]","1e-8","false","true","false","false","true","true","false","O1","1","0.00002","-1","runs/Jul02_21-04-32_ip-172-31-28-52","false","150","1","600","false","3","/home/ubuntu/huggingface/glue_data/Reuters/model_checkpoints3","true","8","32","500","23871","50","false","distilbert-base-cased","200","0","8.232876712328768","0.9155927835051546","0.3747818661258393","0.00002","0.23705376933018368"
"bert-base-cased_1216tdlu","1216tdlu","bert-base-cased_1216tdlu","finished","-","antonmu","","2020-07-02T20:16:24.000Z","1725","","[""cuda:0"",1]","1e-8","false","true","false","false","true","true","false","O1","1","0.00002","-1","runs/Jul02_20-16-08_ip-172-31-28-52","false","150","1","600","false","3","/home/ubuntu/huggingface/glue_data/Reuters/model_checkpoints1","true","8","32","500","20966","50","false","bert-base-cased","200","0","8.232876712328768","0.9452319587628866","0.2402929248883552","0.00002","0.0983863219122092"
"xlnet-base-cased_12f9rshe","12f9rshe","xlnet-base-cased_12f9rshe","finished","-","antonmu","","2020-07-03T02:38:27.000Z","1889","","[""cuda:0"",1]","1e-8","false","true","false","false","true","true","false","O1","1","0.00002","-1","runs/Jul03_02-38-17_ip-172-31-28-52","false","150","1","600","false","3","/home/ubuntu/huggingface/glue_data/Reuters/model_checkpoints4","true","8","16","500","52967","2","false","xlnet-base-cased","200","0","100.16666666666669","0.8176546391752577","1.0081026586367912","0.00002","0.0015151530023043355"
"distilbert-base-cased_13a4qv01","13a4qv01","distilbert-base-cased_13a4qv01","finished","-","antonmu","","2020-07-03T03:10:42.000Z","859","","[""cuda:0"",1]","1e-8","false","true","false","false","true","true","false","O1","1","0.00002","-1","runs/Jul03_03-10-32_ip-172-31-28-52","false","150","1","600","false","3","/home/ubuntu/huggingface/glue_data/Reuters/model_checkpoints7","true","8","32","500","13321","2","false","distilbert-base-cased","200","0","200.33333333333337","0.6894329896907216","1.5238406218818783","0.00002","0.025827020490542058"
"xlm-roberta-base_13mafxbf","13mafxbf","xlm-roberta-base_13mafxbf","finished","-","antonmu","","2020-07-02T23:01:31.000Z","1072","","[""cuda:0"",1]","1e-8","false","true","false","false","true","true","false","O1","1","0.00002","-1","runs/Jul02_23-01-06_ip-172-31-28-52","false","150","1","600","false","3","/home/ubuntu/huggingface/glue_data/Reuters/model_checkpoints5","true","8","16","500","30865","5","false","xlm-roberta-base","200","0","40.06666666666667","0.8485824742268041","0.7342519596526303","0.00002","0.09964115815237164"
"xlnet-base-cased_15d80gkq","15d80gkq","xlnet-base-cased_15d80gkq","finished","-","antonmu","","2020-07-03T02:38:31.000Z","1881","","[""cuda:0"",1]","1e-8","false","true","false","false","true","true","false","O1","1","0.00002","-1","runs/Jul03_02-38-17_ip-172-31-28-52","false","150","1","600","false","3","/home/ubuntu/huggingface/glue_data/Reuters/model_checkpoints7","true","8","16","500","53014","1","false","xlnet-base-cased","200","0","200.33333333333337","0.6797680412371134","1.8934239904905104","0.00002","0.0009586801255742708"
"roberta-base_15ejzgxx","15ejzgxx","roberta-base_15ejzgxx","finished","-","antonmu","","2020-07-03T02:00:42.000Z","1750","","[""cuda:0"",1]","1e-8","false","true","false","false","true","true","false","O1","1","0.00002","-1","runs/Jul03_02-00-28_ip-172-31-28-52","false","150","1","600","false","3","/home/ubuntu/huggingface/glue_data/Reuters/model_checkpoints0","true","8","32","500","71475","2","false","roberta-base","200","0","200.33333333333337","0.8298969072164949","0.8720769342995182","0.00002","0.006866562146072586"
"roberta-base_172rwef9","172rwef9","roberta-base_172rwef9","finished","-","antonmu","","2020-07-02T22:16:51.000Z","1755","","[""cuda:0"",1]","1e-8","false","true","false","false","true","true","false","O1","1","0.00002","-1","runs/Jul02_22-16-38_ip-172-31-28-52","false","150","1","600","false","3","/home/ubuntu/huggingface/glue_data/Reuters/model_checkpoints0","true","8","32","500","28196","2","false","roberta-base","200","0","200.33333333333337","0.8311855670103093","0.811954840249622","0.00002","0.006575373134886225"
"bert-base-cased_17f7n3e4","17f7n3e4","bert-base-cased_17f7n3e4","finished","-","antonmu","","2020-07-02T23:24:44.000Z","1651","","[""cuda:0"",1]","1e-8","false","true","false","false","true","true","false","O1","1","0.00002","-1","runs/Jul02_23-24-32_ip-172-31-28-52","false","150","1","600","false","3","/home/ubuntu/huggingface/glue_data/Reuters/model_checkpoints6","true","8","32","500","5905","5","false","bert-base-cased","200","0","75.125","0.8492268041237113","0.7208637193459826","0.00002","0.0234104566834867"
"bert-base-uncased_17og61xm","17og61xm","bert-base-uncased_17og61xm","finished","-","antonmu","","2020-07-02T22:46:12.000Z","1774","","[""cuda:0"",1]","1e-8","false","true","false","false","true","true","false","O1","1","0.00002","-1","runs/Jul02_22-45-46_ip-172-31-28-52","false","150","1","600","false","3","/home/ubuntu/huggingface/glue_data/Reuters/model_checkpoints6","true","8","32","500","29945","100","false","bert-base-uncased","200","0","4.116438356164384","0.976159793814433","0.14462797512713166","0.00002","0.10800757562120757"
"distilbert-base-cased_1848veli","1848veli","distilbert-base-cased_1848veli","finished","-","antonmu","","2020-07-03T03:49:22.000Z","3429","","[""cuda:0"",1]","1e-8","false","true","false","false","true","true","false","O1","1","0.00002","-1","runs/Jul03_03-49-13_ip-172-31-28-52","false","150","1","600","false","3","/home/ubuntu/huggingface/glue_data/Reuters/model_checkpoints5","true","8","32","500","16238","1","false","distilbert-base-cased","200","0","300.5","0.648840206185567","1.9026900042885355","0.00002","0.008832190707325936"
"bert-base-uncased_18vlxj18","18vlxj18","bert-base-uncased_18vlxj18","finished","-","antonmu","","2020-07-02T20:26:35.000Z","1773","","[""cuda:0"",1]","1e-8","false","true","false","false","true","true","false","O1","1","0.00002","-1","runs/Jul02_20-26-10_ip-172-31-28-52","false","150","1","600","false","3","/home/ubuntu/huggingface/glue_data/Reuters/model_checkpoints6","true","8","32","500","21569","100","false","bert-base-uncased","200","0","4.116438356164384","0.9716494845360824","0.15259538007151222","0.00002","0.11674386550982792"
"distilbert-base-cased_19psx43m","19psx43m","distilbert-base-cased_19psx43m","finished","-","antonmu","","2020-07-03T01:09:35.000Z","794","","[""cuda:0"",1]","1e-8","false","true","false","false","true","true","false","O1","1","0.00002","-1","runs/Jul03_01-09-25_ip-172-31-28-52","false","150","1","600","false","3","/home/ubuntu/huggingface/glue_data/Reuters/model_checkpoints5","true","8","32","500","38413","5","false","distilbert-base-cased","200","0","75.125","0.821520618556701","0.8108119976889226","0.00002","0.023626845379670466"
"distilbert-base-cased_19vbwexy","19vbwexy","distilbert-base-cased_19vbwexy","finished","-","antonmu","","2020-07-03T03:25:30.000Z","689","","[""cuda:0"",1]","1e-8","false","true","false","false","true","true","false","O1","1","0.00002","-1","runs/Jul03_03-25-21_ip-172-31-28-52","false","150","1","600","false","3","/home/ubuntu/huggingface/glue_data/Reuters/model_checkpoints7","true","8","32","500","4921","1","false","distilbert-base-cased","200","0","300.5","0.6939432989690721","1.6000580589488609","0.00002","0.008291345577066143"
"roberta-base_1az428e6","1az428e6","roberta-base_1az428e6","finished","-","antonmu","","2020-07-03T02:03:51.000Z","1750","","[""cuda:0"",1]","1e-8","false","true","false","false","true","true","false","O1","1","0.00002","-1","runs/Jul03_02-03-36_ip-172-31-28-52","false","150","1","600","false","3","/home/ubuntu/huggingface/glue_data/Reuters/model_checkpoints2","true","8","32","500","55256","20","false","roberta-base","200","0","20.033333333333335","0.9568298969072164","0.19822076062873467","0.00002","0.014450558026631671"
"bert-base-cased_1bkq2jce","1bkq2jce","bert-base-cased_1bkq2jce","finished","-","antonmu","","2020-07-03T00:39:21.000Z","1739","","[""cuda:0"",1]","1e-8","false","true","false","false","true","true","false","O1","1","0.00002","-1","runs/Jul03_00-39-09_ip-172-31-28-52","false","150","1","600","false","3","/home/ubuntu/huggingface/glue_data/Reuters/model_checkpoints6","true","8","32","500","76348","10","false","bert-base-cased","200","0","40.06666666666667","0.8827319587628866","0.4979942321162863","0.00002","0.02711163667961955"
"distilbert-base-cased_1bqqkpew","1bqqkpew","distilbert-base-cased_1bqqkpew","finished","-","antonmu","","2020-07-03T04:31:02.000Z","815","","[""cuda:0"",1]","1e-8","false","true","false","false","true","true","false","O1","1","0.00002","-1","runs/Jul03_04-30-53_ip-172-31-28-52","false","150","1","600","false","3","/home/ubuntu/huggingface/glue_data/Reuters/model_checkpoints7","true","8","32","500","15541","5","false","distilbert-base-cased","200","0","75.125","0.8260309278350515","0.881114048595281","0.00002","0.0148161698365584"
"bert-base-uncased_1eiochln","1eiochln","bert-base-uncased_1eiochln","finished","-","antonmu","","2020-07-02T20:02:33.000Z","1675","","[""cuda:0"",1]","1e-8","false","true","false","false","true","true","false","O1","1","0.00002","-1","runs/Jul02_20-02-08_ip-172-31-28-52","false","150","1","600","false","3","/home/ubuntu/huggingface/glue_data/Reuters/model_checkpoints5","true","8","32","500","20126","100","false","bert-base-uncased","200","0","4.116438356164384","0.9722938144329896","0.15264596229361505","0.00002","0.12369955758253734"
"albert-base-v2_1enfql4f","1enfql4f","albert-base-v2_1enfql4f","finished","-","antonmu","","2020-07-03T01:09:38.000Z","1781","","[""cuda:0"",1]","1e-8","false","true","false","false","true","true","false","O1","1","0.00002","-1","runs/Jul03_01-09-31_ip-172-31-28-52","false","150","1","600","false","3","/home/ubuntu/huggingface/glue_data/Reuters/model_checkpoints7","true","8","32","500","1465","2","false","albert-base-v2","200","0","200.33333333333337","0.6952319587628866","1.4247276004134994","0.00002","0.002573851574367533"
"xlnet-base-cased_1h1h348p","1h1h348p","xlnet-base-cased_1h1h348p","finished","-","antonmu","","2020-07-03T01:08:56.000Z","1893","","[""cuda:0"",1]","1e-8","false","true","false","false","true","true","false","O1","1","0.00002","-1","runs/Jul03_01-08-46_ip-172-31-28-52","false","150","1","600","false","3","/home/ubuntu/huggingface/glue_data/Reuters/model_checkpoints6","true","8","16","500","52248","1","false","xlnet-base-cased","200","0","200.33333333333337","0.7467783505154639","1.503363343704607","0.00002","0.0011020067939534785"
"albert-base-v2_1h8gv1vp","1h8gv1vp","albert-base-v2_1h8gv1vp","finished","-","antonmu","","2020-07-02T22:36:49.000Z","1870","","[""cuda:0"",1]","1e-8","false","true","false","false","true","true","false","O1","1","0.00002","-1","runs/Jul02_22-36-39_ip-172-31-28-52","false","150","1","600","false","3","/home/ubuntu/huggingface/glue_data/Reuters/model_checkpoints4","true","8","32","500","29398","50","false","albert-base-v2","200","0","8.232876712328768","0.9684278350515464","0.17163362346359134","0.00002","0.06347224092731873"
"xlnet-base-cased_1hvvenur","1hvvenur","xlnet-base-cased_1hvvenur","finished","-","antonmu","","2020-07-03T01:12:19.000Z","1924","","[""cuda:0"",1]","1e-8","false","true","false","false","true","true","false","O1","1","0.00002","-1","runs/Jul03_01-12-08_ip-172-31-28-52","false","150","1","600","false","3","/home/ubuntu/huggingface/glue_data/Reuters/model_checkpoints0","true","8","16","500","66597","20","false","xlnet-base-cased","200","0","10.186440677966102","0.9497422680412372","0.23592316505220748","0.00002","0.014322177718083064"
"distilbert-base-cased_1ie3p06s","1ie3p06s","distilbert-base-cased_1ie3p06s","finished","-","antonmu","","2020-07-02T20:34:09.000Z","904","","[""cuda:0"",1]","1e-8","false","true","false","false","true","true","false","O1","1","0.00002","-1","runs/Jul02_20-33-56_ip-172-31-28-52","false","150","1","600","false","3","/home/ubuntu/huggingface/glue_data/Reuters/model_checkpoints4","true","8","32","500","22034","50","false","distilbert-base-cased","200","0","8.232876712328768","0.934278350515464","0.31967655999451566","0.00002","0.20072864120205244"
"xlm-roberta-base_1jfszqkh","1jfszqkh","xlm-roberta-base_1jfszqkh","finished","-","antonmu","","2020-07-02T20:45:59.000Z","1099","","[""cuda:0"",1]","1e-8","false","true","false","false","true","true","false","O1","1","0.00002","-1","runs/Jul02_20-45-35_ip-172-31-28-52","false","150","1","600","false","3","/home/ubuntu/huggingface/glue_data/Reuters/model_checkpoints1","true","8","16","500","22734","5","false","xlm-roberta-base","200","0","40.06666666666667","0.8569587628865979","0.5893189382460928","0.00002","0.11031191512942314"
"roberta-base_1lyas5v3","1lyas5v3","roberta-base_1lyas5v3","finished","-","antonmu","","2020-07-03T00:40:50.000Z","1690","","[""cuda:0"",1]","1e-8","false","true","false","false","true","true","false","O1","1","0.00002","-1","runs/Jul03_00-40-33_ip-172-31-28-52","false","150","1","600","false","3","/home/ubuntu/huggingface/glue_data/Reuters/model_checkpoints5","true","8","32","500","25380","50","false","roberta-base","200","0","8.232876712328768","0.9690721649484536","0.15719309863970451","0.00002","0.03200717225670815"
"albert-base-v2_1m18x5y9","1m18x5y9","albert-base-v2_1m18x5y9","finished","-","antonmu","","2020-07-03T04:06:32.000Z","1428","","[""cuda:0"",1]","1e-8","false","true","false","false","true","true","false","O1","1","0.00002","-1","runs/Jul03_04-06-25_ip-172-31-28-52","false","150","1","600","false","3","/home/ubuntu/huggingface/glue_data/Reuters/model_checkpoints7","true","8","32","500","42559","1","false","albert-base-v2","200","0","300.5","0.6411082474226805","1.520587677808152","0.00002","0.0029634448986810944"
"roberta-base_1mbr0qe0","1mbr0qe0","roberta-base_1mbr0qe0","finished","-","antonmu","","2020-07-02T18:23:57.000Z","1648","","[""cuda:0"",1]","1e-8","false","true","false","false","true","true","false","O1","1","0.00002","-1","runs/Jul02_18-23-43_ip-172-31-27-250","false","150","1","600","false","3","/home/ubuntu/hugging/glue_data/Reuters/model_checkpoints","true","8","32","500","14222","2","false","roberta-base","200","0","200.33333333333337","0.8182989690721649","0.981645441239642","0.00002","0.00832034387625754"
"albert-base-v2_1mjz5pya","1mjz5pya","albert-base-v2_1mjz5pya","finished","-","antonmu","","2020-07-03T01:41:13.000Z","1732","","[""cuda:0"",1]","1e-8","false","true","false","false","true","true","false","O1","1","0.00002","-1","runs/Jul03_01-41-06_ip-172-31-28-52","false","150","1","600","false","3","/home/ubuntu/huggingface/glue_data/Reuters/model_checkpoints6","true","8","32","500","48128","5","false","albert-base-v2","200","0","75.125","0.7712628865979382","0.9224671252916768","0.00002","0.009439469190935294"
"bert-base-cased_1n10cj8i","1n10cj8i","bert-base-cased_1n10cj8i","finished","-","antonmu","","2020-07-02T22:19:42.000Z","1733","","[""cuda:0"",1]","1e-8","false","true","false","false","true","true","false","O1","1","0.00002","-1","runs/Jul02_22-19-27_ip-172-31-28-52","false","150","1","600","false","3","/home/ubuntu/huggingface/glue_data/Reuters/model_checkpoints7","true","8","32","500","28365","50","false","bert-base-cased","200","0","8.232876712328768","0.9426546391752576","0.2739005008923639","0.00002","0.13201087646186352"
"albert-base-v2_1nedfpz0","1nedfpz0","albert-base-v2_1nedfpz0","finished","-","antonmu","","2020-07-02T22:01:08.000Z","1891","","[""cuda:0"",1]","1e-8","false","true","false","false","true","true","false","O1","1","0.00002","-1","runs/Jul02_22-00-56_ip-172-31-28-52","false","150","1","600","false","3","/home/ubuntu/huggingface/glue_data/Reuters/model_checkpoints3","true","8","32","500","27255","100","false","albert-base-v2","200","0","4.116438356164384","0.9684278350515464","0.1493519980882861","0.00002","0.11511421660582224"
"xlnet-base-cased_1o432440","1o432440","xlnet-base-cased_1o432440","finished","-","antonmu","","2020-07-02T23:24:43.000Z","1901","","[""cuda:0"",1]","1e-8","false","true","false","false","true","true","false","O1","1","0.00002","-1","runs/Jul02_23-24-32_ip-172-31-28-52","false","150","1","600","false","3","/home/ubuntu/huggingface/glue_data/Reuters/model_checkpoints0","true","8","16","500","6034","10","false","xlnet-base-cased","200","0","20.033333333333335","0.922680412371134","0.3510363797858818","0.00002","0.008559031883875528"
"bert-base-uncased_1oklbpuk","1oklbpuk","bert-base-uncased_1oklbpuk","finished","-","antonmu","","2020-07-02T21:04:56.000Z","1598","","[""cuda:0"",1]","1e-8","false","true","false","false","true","true","false","O1","1","0.00002","-1","runs/Jul02_21-04-44_ip-172-31-28-52","false","150","1","600","false","3","/home/ubuntu/huggingface/glue_data/Reuters/model_checkpoints1","true","8","32","500","23882","5","false","bert-base-uncased","200","0","75.125","0.8969072164948454","0.4537229325967966","0.00002","0.030272294580936433"
"albert-base-v2_1oz9lkwv","1oz9lkwv","albert-base-v2_1oz9lkwv","finished","-","antonmu","","2020-07-03T03:10:48.000Z","1840","","[""cuda:0"",1]","1e-8","false","true","false","false","true","true","false","O1","1","0.00002","-1","runs/Jul03_03-10-42_ip-172-31-28-52","false","150","1","600","false","3","/home/ubuntu/huggingface/glue_data/Reuters/model_checkpoints0","true","8","32","500","5972","2","false","albert-base-v2","200","0","200.33333333333337","0.7313144329896907","1.1040914454257365","0.00002","0.0028120471575918296"
"xlnet-base-cased_1p4ez2hx","1p4ez2hx","xlnet-base-cased_1p4ez2hx","finished","-","antonmu","","2020-07-03T02:04:40.000Z","9714","","[""cuda:0"",1]","1e-8","false","true","false","false","true","true","false","O1","1","0.00002","-1","runs/Jul03_02-04-30_ip-172-31-28-52","false","150","1","600","false","3","/home/ubuntu/huggingface/glue_data/Reuters/model_checkpoints4","true","8","16","500","88130","10","false","xlnet-base-cased","200","0","20.033333333333335","0.9278350515463918","0.3991853132383111","0.00002","0.012612354159355164"
"xlnet-base-cased_1phwnkrq","1phwnkrq","xlnet-base-cased_1phwnkrq","finished","-","antonmu","","2020-07-02T23:56:57.000Z","1903","","[""cuda:0"",1]","1e-8","false","true","false","false","true","true","false","O1","1","0.00002","-1","runs/Jul02_23-56-48_ip-172-31-28-52","false","150","1","600","false","3","/home/ubuntu/huggingface/glue_data/Reuters/model_checkpoints4","true","8","16","500","65526","1","false","xlnet-base-cased","200","0","200.33333333333337","0.7493556701030928","1.7067269163647878","0.00002","0.0010627436517582586"
"roberta-base_1pkin70x","1pkin70x","roberta-base_1pkin70x","finished","-","antonmu","","2020-07-02T21:50:45.000Z","1696","","[""cuda:0"",1]","1e-8","false","true","false","false","true","true","false","O1","1","0.00002","-1","runs/Jul02_21-50-32_ip-172-31-28-52","false","150","1","600","false","3","/home/ubuntu/huggingface/glue_data/Reuters/model_checkpoints7","true","8","32","500","26630","2","false","roberta-base","200","0","200.33333333333337","0.7970360824742269","1.1245920757964714","0.00002","0.006016956049328049"
"albert-large-v2_1pw031yk","1pw031yk","albert-large-v2_1pw031yk","finished","-","antonmu","","2020-07-02T20:39:51.000Z","2198","","[""cuda:0"",1]","1e-8","false","true","false","false","true","true","false","O1","1","0.00002","-1","runs/Jul02_20-39-44_ip-172-31-28-52","false","150","1","600","false","3","/home/ubuntu/huggingface/glue_data/Reuters/model_checkpoints2","true","8","8","500","22383","5","false","albert-large-v2","200","0","20.033333333333335","0.7770618556701031","1.0329304238416486","0.00002","0.27622834424177806"
"albert-large-v2_1rbxg0a9","1rbxg0a9","albert-large-v2_1rbxg0a9","finished","-","antonmu","","2020-07-02T21:59:10.000Z","2224","","[""cuda:0"",1]","1e-8","false","true","false","false","true","true","false","O1","1","0.00002","-1","runs/Jul02_21-59-00_ip-172-31-28-52","false","150","1","600","false","3","/home/ubuntu/huggingface/glue_data/Reuters/model_checkpoints4","true","8","8","500","27139","50","false","albert-large-v2","200","0","2.058219178082192","0.895618556701031","0.4548376280161523","0.00002","0.5374807061751684"
"albert-large-v2_1uhd3f5s","1uhd3f5s","albert-large-v2_1uhd3f5s","finished","-","antonmu","","2020-07-02T21:22:03.000Z","2191","","[""cuda:0"",1]","1e-8","false","true","false","false","true","true","false","O1","1","0.00002","-1","runs/Jul02_21-21-56_ip-172-31-28-52","false","150","1","600","false","3","/home/ubuntu/huggingface/glue_data/Reuters/model_checkpoints4","true","8","8","500","24915","5","false","albert-large-v2","200","0","20.033333333333335","0.7583762886597938","0.8882102679806886","0.00002","0.29903172006209694"
"bert-base-cased_1v6h7psv","1v6h7psv","bert-base-cased_1v6h7psv","finished","-","antonmu","","2020-07-03T03:02:50.000Z","1393","","[""cuda:0"",1]","1e-8","false","true","false","false","true","true","false","O1","1","0.00002","-1","runs/Jul03_03-02-38_ip-172-31-28-52","false","150","1","600","false","3","/home/ubuntu/huggingface/glue_data/Reuters/model_checkpoints6","true","8","32","500","72183","1","false","bert-base-cased","200","0","300.5","0.6694587628865979","1.7559858941540276","0.00002","0.0061356581064562"
"xlnet-base-cased_1w08jncz","1w08jncz","xlnet-base-cased_1w08jncz","finished","-","antonmu","","2020-07-03T02:01:37.000Z","1861","","[""cuda:0"",1]","1e-8","false","true","false","false","true","true","false","O1","1","0.00002","-1","runs/Jul03_02-01-27_ip-172-31-28-52","false","150","1","600","false","3","/home/ubuntu/huggingface/glue_data/Reuters/model_checkpoints1","true","8","16","500","64443","1","false","xlnet-base-cased","200","0","200.33333333333337","0.7615979381443299","1.5034936254786462","0.00002","0.0009182276984211058"
"xlnet-base-cased_1wo5b188","1wo5b188","xlnet-base-cased_1wo5b188","finished","-","antonmu","","2020-07-02T20:49:50.000Z","1901","","[""cuda:0"",1]","1e-8","false","true","false","false","true","true","false","O1","1","0.00002","-1","runs/Jul02_20-49-40_ip-172-31-28-52","false","150","1","600","false","3","/home/ubuntu/huggingface/glue_data/Reuters/model_checkpoints4","true","8","16","500","22978","1","false","xlnet-base-cased","200","0","200.33333333333337","0.7570876288659794","1.3260895660550325","0.00002","0.001096374512417242"
"xlnet-base-cased_1x9ut6yt","1x9ut6yt","xlnet-base-cased_1x9ut6yt","finished","-","antonmu","","2020-07-03T01:01:44.000Z","1890","","[""cuda:0"",1]","1e-8","false","true","false","false","true","true","false","O1","1","0.00002","-1","runs/Jul03_01-01-34_ip-172-31-28-52","false","150","1","600","false","3","/home/ubuntu/huggingface/glue_data/Reuters/model_checkpoints4","true","8","16","500","29094","5","false","xlnet-base-cased","200","0","40.06666666666667","0.8885309278350515","0.5370651383682624","0.00002","0.003714584487412746"
"xlnet-base-cased_1xjmwfw2","1xjmwfw2","xlnet-base-cased_1xjmwfw2","finished","-","antonmu","","2020-07-02T23:24:47.000Z","1952","","[""cuda:0"",1]","1e-8","false","true","false","false","true","true","false","O1","1","0.00002","-1","runs/Jul02_23-24-32_ip-172-31-28-52","false","150","1","600","false","3","/home/ubuntu/huggingface/glue_data/Reuters/model_checkpoints3","true","8","16","500","6449","50","false","xlnet-base-cased","200","0","4.116438356164384","0.9619845360824744","0.14946309546219935","0.00002","0.06837238624691963"
"bert-base-cased_1z87t4v7","1z87t4v7","bert-base-cased_1z87t4v7","finished","-","antonmu","","2020-07-03T01:33:02.000Z","1788","","[""cuda:0"",1]","1e-8","false","true","false","false","true","true","false","O1","1","0.00002","-1","runs/Jul03_01-32-46_ip-172-31-28-52","false","150","1","600","false","3","/home/ubuntu/huggingface/glue_data/Reuters/model_checkpoints2","true","8","32","500","50498","50","false","bert-base-cased","200","0","8.232876712328768","0.9478092783505154","0.24781457050559447","0.00002","0.09732650508483252"
"albert-base-v2_21i9qz9h","21i9qz9h","albert-base-v2_21i9qz9h","finished","-","antonmu","","2020-07-02T19:51:04.000Z","1660","","[""cuda:0"",1]","1e-8","false","true","false","false","true","true","false","O1","1","0.00002","-1","runs/Jul02_19-50-58_ip-172-31-27-250","false","150","1","600","false","3","/home/ubuntu/hugging/glue_data/Reuters/model_checkpoints","true","8","32","500","19456","5","false","albert-base-v2","200","0","75.125","0.7815721649484536","0.8737917398822677","0.00002","0.00941782892604048"
"roberta-base_22xm255j","22xm255j","roberta-base_22xm255j","finished","-","antonmu","","2020-07-02T23:57:51.000Z","1784","","[""cuda:0"",1]","1e-8","false","true","false","false","true","true","false","O1","1","0.00002","-1","runs/Jul02_23-57-37_ip-172-31-28-52","false","150","1","600","false","3","/home/ubuntu/huggingface/glue_data/Reuters/model_checkpoints3","true","8","32","500","58314","10","false","roberta-base","200","0","40.06666666666667","0.9394329896907216","0.2827651214200197","0.00002","0.011852000830695032"
"bert-base-cased_23l2140k","23l2140k","bert-base-cased_23l2140k","finished","-","antonmu","","2020-07-02T20:57:45.000Z","1647","","[""cuda:0"",1]","1e-8","false","true","false","false","true","true","false","O1","1","0.00002","-1","runs/Jul02_20-57-34_ip-172-31-28-52","false","150","1","600","false","3","/home/ubuntu/huggingface/glue_data/Reuters/model_checkpoints5","true","8","32","500","23452","2","false","bert-base-cased","200","0","200.33333333333337","0.7583762886597938","1.251398716851608","0.00002","0.012851961084331075"
"bert-base-uncased_24moeku0","24moeku0","bert-base-uncased_24moeku0","finished","-","antonmu","","2020-07-02T21:26:03.000Z","1685","","[""cuda:0"",1]","1e-8","false","true","false","false","true","true","false","O1","1","0.00002","-1","runs/Jul02_21-25-38_ip-172-31-28-52","false","150","1","600","false","3","/home/ubuntu/huggingface/glue_data/Reuters/model_checkpoints5","true","8","32","500","25136","100","false","bert-base-uncased","200","0","4.116438356164384","0.9722938144329896","0.14687010999192895","0.00002","0.10879446148872376"
"distilbert-base-cased_25p8xuil","25p8xuil","distilbert-base-cased_25p8xuil","finished","-","antonmu","","2020-07-02T20:02:20.000Z","836","","[""cuda:0"",1]","1e-8","false","true","false","false","true","true","false","O1","1","0.00002","-1","runs/Jul02_20-02-08_ip-172-31-28-52","false","150","1","600","false","3","/home/ubuntu/huggingface/glue_data/Reuters/model_checkpoints0","true","8","32","500","20126","5","false","distilbert-base-cased","200","0","75.125","0.8389175257731959","0.6832936440700108","0.00002","0.024546698168851435"
"albert-base-v2_282h0s8q","282h0s8q","albert-base-v2_282h0s8q","finished","-","antonmu","","2020-07-03T03:26:58.000Z","1454","","[""cuda:0"",1]","1e-8","false","true","false","false","true","true","false","O1","1","0.00002","-1","runs/Jul03_03-26-51_ip-172-31-28-52","false","150","1","600","false","3","/home/ubuntu/huggingface/glue_data/Reuters/model_checkpoints6","true","8","32","500","4127","1","false","albert-base-v2","200","0","300.5","0.6398195876288659","1.536392866950674","0.00002","0.002920414216350764"
"bert-base-uncased_28egs48s","28egs48s","bert-base-uncased_28egs48s","finished","-","antonmu","","2020-07-02T20:31:06.000Z","1562","","[""cuda:0"",1]","1e-8","false","true","false","false","true","true","false","O1","1","0.00002","-1","runs/Jul02_20-30-53_ip-172-31-28-52","false","150","1","600","false","3","/home/ubuntu/huggingface/glue_data/Reuters/model_checkpoints5","true","8","32","500","21852","5","false","bert-base-uncased","200","0","75.125","0.8679123711340206","0.5736505558195802","0.00002","0.034175915389011303"
"xlnet-base-cased_2afr47c4","2afr47c4","xlnet-base-cased_2afr47c4","finished","-","antonmu","","2020-07-02T19:20:28.000Z","1828","","[""cuda:0"",1]","1e-8","false","true","false","false","true","true","false","O1","1","0.00002","-1","runs/Jul02_19-20-18_ip-172-31-27-250","false","150","1","600","false","3","/home/ubuntu/hugging/glue_data/Reuters/model_checkpoints","true","8","16","500","17617","5","false","xlnet-base-cased","200","0","40.06666666666667","0.8975515463917526","0.5348876785371721","0.00002","0.0027537063555791975"
"roberta-base_2ahlp8au","2ahlp8au","roberta-base_2ahlp8au","finished","-","antonmu","","2020-07-02T20:40:17.000Z","1429","","[""cuda:0"",1]","1e-8","false","true","false","false","true","true","false","O1","1","0.00002","-1","runs/Jul02_20-40-03_ip-172-31-28-52","false","150","1","600","false","3","/home/ubuntu/huggingface/glue_data/Reuters/model_checkpoints3","true","8","32","500","22402","1","false","roberta-base","200","0","300.5","0.7603092783505154","1.3237328351158455","0.00002","0.004864522020022075"
"bert-base-cased_2aneunwf","2aneunwf","bert-base-cased_2aneunwf","finished","-","antonmu","","2020-07-03T01:03:24.000Z","1744","","[""cuda:0"",1]","1e-8","false","true","false","false","true","true","false","O1","1","0.00002","-1","runs/Jul03_01-03-12_ip-172-31-28-52","false","150","1","600","false","3","/home/ubuntu/huggingface/glue_data/Reuters/model_checkpoints2","true","8","32","500","11926","2","false","bert-base-cased","200","0","200.33333333333337","0.7519329896907216","1.1078142038325671","0.00002","0.01437606140350302"
"xlm-roberta-base_2bxm5la5","2bxm5la5","xlm-roberta-base_2bxm5la5","finished","-","antonmu","","2020-07-02T22:34:12.000Z","1101","","[""cuda:0"",1]","1e-8","false","true","false","false","true","true","false","O1","1","0.00002","-1","runs/Jul02_22-33-48_ip-172-31-28-52","false","150","1","600","false","3","/home/ubuntu/huggingface/glue_data/Reuters/model_checkpoints1","true","8","16","500","29226","1","false","xlm-roberta-base","200","0","200.33333333333337","0.7177835051546392","1.808586880103829","0.00002","0.008032227150785427"
"xlm-roberta-base_2den6yet","2den6yet","xlm-roberta-base_2den6yet","finished","-","antonmu","","2020-07-02T20:02:33.000Z","1076","","[""cuda:0"",1]","1e-8","false","true","false","false","true","true","false","O1","1","0.00002","-1","runs/Jul02_20-02-08_ip-172-31-28-52","false","150","1","600","false","3","/home/ubuntu/huggingface/glue_data/Reuters/model_checkpoints7","true","8","16","500","20126","10","false","xlm-roberta-base","200","0","20.033333333333335","0.8872422680412371","0.4847018505187379","0.00002","0.23772632747888564"
"albert-base-v2_2emk14mv","2emk14mv","albert-base-v2_2emk14mv","finished","-","antonmu","","2020-07-02T20:41:55.000Z","1886","","[""cuda:0"",1]","1e-8","false","true","false","false","true","true","false","O1","1","0.00002","-1","runs/Jul02_20-41-43_ip-172-31-28-52","false","150","1","600","false","3","/home/ubuntu/huggingface/glue_data/Reuters/model_checkpoints0","true","8","32","500","22502","100","false","albert-base-v2","200","0","4.116438356164384","0.970360824742268","0.15728240014658762","0.00002","0.1036944003899892"
"albert-large-v2_2fltx8sb","2fltx8sb","albert-large-v2_2fltx8sb","finished","-","antonmu","","2020-07-02T20:02:23.000Z","2216","","[""cuda:0"",1]","1e-8","false","true","false","false","true","true","false","O1","1","0.00002","-1","runs/Jul02_20-02-08_ip-172-31-28-52","false","150","1","600","false","3","/home/ubuntu/huggingface/glue_data/Reuters/model_checkpoints2","true","8","8","500","20126","10","false","albert-large-v2","200","0","10.186440677966102","0.8640463917525774","0.5405627866227602","0.00002","0.3500743482510249"
"xlnet-base-cased_2fs98swn","2fs98swn","xlnet-base-cased_2fs98swn","finished","-","antonmu","","2020-07-02T21:48:28.000Z","1841","","[""cuda:0"",1]","1e-8","false","true","false","false","true","true","false","O1","1","0.00002","-1","runs/Jul02_21-48-18_ip-172-31-27-250","false","150","1","600","false","3","/home/ubuntu/hugging/glue_data/Reuters/model_checkpoints","true","8","16","500","26496","5","false","xlnet-base-cased","200","0","40.06666666666667","0.8756443298969072","0.6608913301192608","0.00002","0.00319130299341244"
"xlm-roberta-base_2g0tqnv3","2g0tqnv3","xlm-roberta-base_2g0tqnv3","finished","-","antonmu","","2020-07-02T22:26:19.000Z","1141","","[""cuda:0"",1]","1e-8","false","true","false","false","true","true","false","O1","1","0.00002","-1","runs/Jul02_22-25-51_ip-172-31-28-52","false","150","1","600","false","3","/home/ubuntu/huggingface/glue_data/Reuters/model_checkpoints6","true","8","16","500","28749","100","false","xlm-roberta-base","200","0","2.058219178082192","0.8962628865979382","0.3833846660311689","0.00002","0.49096401780843735"
"albert-base-v2_2gd1t44v","2gd1t44v","albert-base-v2_2gd1t44v","finished","-","antonmu","","2020-07-03T00:08:19.000Z","1826","","[""cuda:0"",1]","1e-8","false","true","false","false","true","true","false","O1","1","0.00002","-1","runs/Jul03_00-08-10_ip-172-31-28-52","false","150","1","600","false","3","/home/ubuntu/huggingface/glue_data/Reuters/model_checkpoints7","true","8","32","500","92321","50","false","albert-base-v2","200","0","8.232876712328768","0.9632731958762888","0.16612873533644626","0.00002","0.07351816122730573"
"bert-base-cased_2glj1cff","2glj1cff","bert-base-cased_2glj1cff","finished","-","antonmu","","2020-07-02T23:56:54.000Z","1748","","[""cuda:0"",1]","1e-8","false","true","false","false","true","true","false","O1","1","0.00002","-1","runs/Jul02_23-56-43_ip-172-31-28-52","false","150","1","600","false","3","/home/ubuntu/huggingface/glue_data/Reuters/model_checkpoints0","true","8","32","500","18461","2","false","bert-base-cased","200","0","200.33333333333337","0.7667525773195877","1.1991080039555264","0.00002","0.009939380446448922"
"bert-base-cased_2gly9zpx","2gly9zpx","bert-base-cased_2gly9zpx","finished","-","antonmu","","2020-07-02T22:37:22.000Z","1745","","[""cuda:0"",1]","1e-8","false","true","false","false","true","true","false","O1","1","0.00002","-1","runs/Jul02_22-37-11_ip-172-31-28-52","false","150","1","600","false","3","/home/ubuntu/huggingface/glue_data/Reuters/model_checkpoints2","true","8","32","500","29430","2","false","bert-base-cased","200","0","200.33333333333337","0.7255154639175257","1.3473412847703266","0.00002","0.011542589794844387"
"albert-base-v2_2hsamtba","2hsamtba","albert-base-v2_2hsamtba","finished","-","antonmu","","2020-07-02T23:56:22.000Z","1738","","[""cuda:0"",1]","1e-8","false","true","false","false","true","true","false","O1","1","0.00002","-1","runs/Jul02_23-56-14_ip-172-31-28-52","false","150","1","600","false","3","/home/ubuntu/huggingface/glue_data/Reuters/model_checkpoints5","true","8","32","500","33891","20","false","albert-base-v2","200","0","20.033333333333335","0.9574742268041238","0.1839720812654987","0.00002","0.02310142238934835"
"xlnet-base-cased_2l60ass2","2l60ass2","xlnet-base-cased_2l60ass2","finished","-","antonmu","","2020-07-02T20:21:06.000Z","1884","","[""cuda:0"",1]","1e-8","false","true","false","false","true","true","false","O1","1","0.00002","-1","runs/Jul02_20-20-55_ip-172-31-28-52","false","150","1","600","false","3","/home/ubuntu/huggingface/glue_data/Reuters/model_checkpoints7","true","8","16","500","21254","20","false","xlnet-base-cased","200","0","10.186440677966102","0.9452319587628866","0.25203843322611347","0.00002","0.01944957216580709"
"xlnet-base-cased_2l8jhn7p","2l8jhn7p","xlnet-base-cased_2l8jhn7p","finished","-","antonmu","","2020-07-02T22:30:03.000Z","1837","","[""cuda:0"",1]","1e-8","false","true","false","false","true","true","false","O1","1","0.00002","-1","runs/Jul02_22-29-53_ip-172-31-28-52","false","150","1","600","false","3","/home/ubuntu/huggingface/glue_data/Reuters/model_checkpoints5","true","8","16","500","28991","10","false","xlnet-base-cased","200","0","20.033333333333335","0.9336340206185568","0.2814306546117842","0.00002","0.01004127194484075"
"xlnet-base-cased_2lklwtv3","2lklwtv3","xlnet-base-cased_2lklwtv3","finished","-","antonmu","","2020-07-03T00:28:02.000Z","1915","","[""cuda:0"",1]","1e-8","false","true","false","false","true","true","false","O1","1","0.00002","-1","runs/Jul03_00-27-52_ip-172-31-28-52","false","150","1","600","false","3","/home/ubuntu/huggingface/glue_data/Reuters/model_checkpoints3","true","8","16","500","10855","10","false","xlnet-base-cased","200","0","20.033333333333335","0.919458762886598","0.3819802888889902","0.00002","0.00813170890013377"
"xlnet-base-cased_2m7h2v2i","2m7h2v2i","xlnet-base-cased_2m7h2v2i","finished","-","antonmu","","2020-07-03T00:29:35.000Z","1899","","[""cuda:0"",1]","1e-8","false","true","false","false","true","true","false","O1","1","0.00002","-1","runs/Jul03_00-29-25_ip-172-31-28-52","false","150","1","600","false","3","/home/ubuntu/huggingface/glue_data/Reuters/model_checkpoints4","true","8","16","500","39825","1","false","xlnet-base-cased","200","0","200.33333333333337","0.7126288659793815","2.0732228092311584","0.00002","0.0008682629931718111"
"xlnet-base-cased_2m99r4a0","2m99r4a0","xlnet-base-cased_2m99r4a0","finished","-","antonmu","","2020-07-03T00:39:41.000Z","1901","","[""cuda:0"",1]","1e-8","false","true","false","false","true","true","false","O1","1","0.00002","-1","runs/Jul03_00-39-31_ip-172-31-28-52","false","150","1","600","false","3","/home/ubuntu/huggingface/glue_data/Reuters/model_checkpoints0","true","8","16","500","97424","10","false","xlnet-base-cased","200","0","20.033333333333335","0.919458762886598","0.3936005674072148","0.00002","0.011886604130268095"
"distilbert-base-cased_2n5m28we","2n5m28we","distilbert-base-cased_2n5m28we","finished","-","antonmu","","2020-07-03T04:21:49.000Z","835","","[""cuda:0"",1]","1e-8","false","true","false","false","true","true","false","O1","1","0.00002","-1","runs/Jul03_04-21-40_ip-172-31-28-52","false","150","1","600","false","3","/home/ubuntu/huggingface/glue_data/Reuters/model_checkpoints6","true","8","32","500","85541","5","false","distilbert-base-cased","200","0","75.125","0.8434278350515464","0.7467381825152132","0.00002","0.02166677465972801"
"xlnet-base-cased_2n8mkrya","2n8mkrya","xlnet-base-cased_2n8mkrya","finished","-","antonmu","","2020-07-03T03:41:56.000Z","3872","","[""cuda:0"",1]","1e-8","false","true","false","false","true","true","false","O1","1","0.00002","-1","runs/Jul03_03-41-46_ip-172-31-28-52","false","150","1","600","false","3","/home/ubuntu/huggingface/glue_data/Reuters/model_checkpoints0","true","8","16","500","49562","1","false","xlnet-base-cased","200","0","200.33333333333337","0.7184278350515464","1.846162822904046","0.00002","0.0009519177820766344"
"xlm-roberta-base_2q53v9ek","2q53v9ek","xlm-roberta-base_2q53v9ek","finished","-","antonmu","","2020-07-02T22:49:25.000Z","1107","","[""cuda:0"",1]","1e-8","false","true","false","false","true","true","false","O1","1","0.00002","-1","runs/Jul02_22-49-01_ip-172-31-28-52","false","150","1","600","false","3","/home/ubuntu/huggingface/glue_data/Reuters/model_checkpoints7","true","8","16","500","30139","1","false","xlm-roberta-base","200","0","200.33333333333337","0.7313144329896907","1.6583902934162886","0.00002","0.007568659127379457"
"xlnet-base-cased_2rxvrsyb","2rxvrsyb","xlnet-base-cased_2rxvrsyb","finished","-","antonmu","","2020-07-03T03:24:46.000Z","1853","","[""cuda:0"",1]","1e-8","false","true","false","false","true","true","false","O1","1","0.00002","-1","runs/Jul03_03-24-36_ip-172-31-28-52","false","150","1","600","false","3","/home/ubuntu/huggingface/glue_data/Reuters/model_checkpoints1","true","8","16","500","54273","2","false","xlnet-base-cased","200","0","100.16666666666669","0.8182989690721649","0.9457791943832772","0.00002","0.0015207562529637169"
"albert-base-v2_2t7975af","2t7975af","albert-base-v2_2t7975af","finished","-","antonmu","","2020-07-02T23:24:42.000Z","1872","","[""cuda:0"",1]","1e-8","false","true","false","false","true","true","false","O1","1","0.00002","-1","runs/Jul02_23-24-32_ip-172-31-28-52","false","150","1","600","false","3","/home/ubuntu/huggingface/glue_data/Reuters/model_checkpoints4","true","8","32","500","5089","50","false","albert-base-v2","200","0","8.232876712328768","0.9645618556701032","0.17068767079065755","0.00002","0.08429192920525869"
"distilbert-base-cased_2tgyn8x6","2tgyn8x6","distilbert-base-cased_2tgyn8x6","finished","-","antonmu","","2020-07-02T22:22:48.000Z","837","","[""cuda:0"",1]","1e-8","false","true","false","false","true","true","false","O1","1","0.00002","-1","runs/Jul02_22-22-38_ip-172-31-28-52","false","150","1","600","false","3","/home/ubuntu/huggingface/glue_data/Reuters/model_checkpoints2","true","8","32","500","28557","5","false","distilbert-base-cased","200","0","75.125","0.8389175257731959","0.7112502434972635","0.00002","0.021948899870427942"
"xlnet-base-cased_2tnsp64w","2tnsp64w","xlnet-base-cased_2tnsp64w","finished","-","antonmu","","2020-07-03T04:01:52.000Z","1908","","[""cuda:0"",1]","1e-8","false","true","false","false","true","true","false","O1","1","0.00002","-1","runs/Jul03_04-01-42_ip-172-31-28-52","false","150","1","600","false","3","/home/ubuntu/huggingface/glue_data/Reuters/model_checkpoints3","true","8","16","500","6232","2","false","xlnet-base-cased","200","0","100.16666666666669","0.7648195876288659","1.2807880303601629","0.00002","0.001664104477580016"
"albert-base-v2_2w0dvm8u","2w0dvm8u","albert-base-v2_2w0dvm8u","finished","-","antonmu","","2020-07-02T20:53:02.000Z","1695","","[""cuda:0"",1]","1e-8","false","true","false","false","true","true","false","O1","1","0.00002","-1","runs/Jul02_20-52-56_ip-172-31-28-52","false","150","1","600","false","3","/home/ubuntu/huggingface/glue_data/Reuters/model_checkpoints7","true","8","32","500","23174","5","false","albert-base-v2","200","0","75.125","0.8086340206185567","0.7588753419131348","0.00002","0.009216355582078298"
"roberta-base_2w9xuemu","2w9xuemu","roberta-base_2w9xuemu","finished","-","antonmu","","2020-07-02T23:40:09.000Z","1696","","[""cuda:0"",1]","1e-8","false","true","false","false","true","true","false","O1","1","0.00002","-1","runs/Jul02_23-39-55_ip-172-31-28-52","false","150","1","600","false","3","/home/ubuntu/huggingface/glue_data/Reuters/model_checkpoints1","true","8","32","500","38350","10","false","roberta-base","200","0","40.06666666666667","0.9329896907216496","0.32819033037755907","0.00002","0.012061540589978298"
"roberta-base_2yyflkvi","2yyflkvi","roberta-base_2yyflkvi","finished","-","antonmu","","2020-07-03T00:09:20.000Z","1751","","[""cuda:0"",1]","1e-8","false","true","false","false","true","true","false","O1","1","0.00002","-1","runs/Jul03_00-09-05_ip-172-31-28-52","false","150","1","600","false","3","/home/ubuntu/huggingface/glue_data/Reuters/model_checkpoints2","true","8","32","500","39695","20","false","roberta-base","200","0","20.033333333333335","0.9652061855670104","0.1933907987837939","0.00002","0.014353393862644831"
"albert-base-v2_2z9sodui","2z9sodui","albert-base-v2_2z9sodui","finished","-","antonmu","","2020-07-02T20:49:46.000Z","1749","","[""cuda:0"",1]","1e-8","false","true","false","false","true","true","false","O1","1","0.00002","-1","runs/Jul02_20-49-40_ip-172-31-27-250","false","150","1","600","false","3","/home/ubuntu/hugging/glue_data/Reuters/model_checkpoints","true","8","32","500","22978","2","false","albert-base-v2","200","0","200.33333333333337","0.6701030927835051","1.4380631669587696","0.00002","0.0037339759338647126"
"bert-base-cased_303tq9og","303tq9og","bert-base-cased_303tq9og","finished","-","antonmu","","2020-07-02T23:24:48.000Z","1748","","[""cuda:0"",1]","1e-8","false","true","false","false","true","true","false","O1","1","0.00002","-1","runs/Jul02_23-24-32_ip-172-31-28-52","false","150","1","600","false","3","/home/ubuntu/huggingface/glue_data/Reuters/model_checkpoints2","true","8","32","500","6052","10","false","bert-base-cased","200","0","40.06666666666667","0.8911082474226805","0.4352211107298271","0.00002","0.027382937123378116"
"bert-base-uncased_30bvumyh","30bvumyh","bert-base-uncased_30bvumyh","finished","-","antonmu","","2020-07-02T21:21:56.000Z","1690","","[""cuda:0"",1]","1e-8","false","true","false","false","true","true","false","O1","1","0.00002","-1","runs/Jul02_21-21-43_ip-172-31-28-52","false","150","1","600","false","3","/home/ubuntu/huggingface/glue_data/Reuters/model_checkpoints7","true","8","32","500","24901","10","false","bert-base-uncased","200","0","40.06666666666667","0.9387886597938144","0.29341601426761177","0.00002","0.036114381017784275"
"bert-base-cased_31fqx8nu","31fqx8nu","bert-base-cased_31fqx8nu","finished","-","antonmu","","2020-07-03T02:38:29.000Z","1395","","[""cuda:0"",1]","1e-8","false","true","false","false","true","true","false","O1","1","0.00002","-1","runs/Jul03_02-38-17_ip-172-31-28-52","false","150","1","600","false","3","/home/ubuntu/huggingface/glue_data/Reuters/model_checkpoints6","true","8","32","500","53009","1","false","bert-base-cased","200","0","300.5","0.645618556701031","1.8642806288661415","0.00002","0.008099827156402171"
"albert-base-v2_31lksobg","31lksobg","albert-base-v2_31lksobg","finished","-","antonmu","","2020-07-02T18:51:33.000Z","1724","","[""cuda:0"",1]","1e-8","false","true","false","false","true","true","false","O1","1","0.00002","-1","runs/Jul02_18-51-26_ip-172-31-27-250","false","150","1","600","false","3","/home/ubuntu/hugging/glue_data/Reuters/model_checkpoints","true","8","32","500","15885","2","false","albert-base-v2","200","0","200.33333333333337","0.6095360824742269","1.957280039480052","0.00002","0.0028603023011237383"
"bert-base-cased_32f5jn3z","32f5jn3z","bert-base-cased_32f5jn3z","finished","-","antonmu","","2020-07-02T21:20:44.000Z","1429","","[""cuda:0"",1]","1e-8","false","true","false","false","true","true","false","O1","1","0.00002","-1","runs/Jul02_21-20-32_ip-172-31-28-52","false","150","1","600","false","3","/home/ubuntu/huggingface/glue_data/Reuters/model_checkpoints3","true","8","32","500","24831","1","false","bert-base-cased","200","0","300.5","0.6945876288659794","1.524106965083437","0.00002","0.011216334473962586"
"roberta-base_33xficwh","33xficwh","roberta-base_33xficwh","finished","-","antonmu","","2020-07-03T03:04:08.000Z","1686","","[""cuda:0"",1]","1e-8","false","true","false","false","true","true","false","O1","1","0.00002","-1","runs/Jul03_03-03-54_ip-172-31-28-52","false","150","1","600","false","3","/home/ubuntu/huggingface/glue_data/Reuters/model_checkpoints3","true","8","32","500","29833","5","false","roberta-base","200","0","75.125","0.904639175257732","0.4173767310903244","0.00002","0.010779207131514947"
"albert-base-v2_34a7bvlk","34a7bvlk","albert-base-v2_34a7bvlk","finished","-","antonmu","","2020-07-03T00:09:16.000Z","1419","","[""cuda:0"",1]","1e-8","false","true","false","false","true","true","false","O1","1","0.00002","-1","runs/Jul03_00-09-10_ip-172-31-28-52","false","150","1","600","false","3","/home/ubuntu/huggingface/glue_data/Reuters/model_checkpoints1","true","8","32","500","85429","1","false","albert-base-v2","200","0","300.5","0.6501288659793815","1.6293276446996277","0.00002","0.002699314549875756"
"albert-large-v2_36qu59bm","36qu59bm","albert-large-v2_36qu59bm","finished","-","antonmu","","2020-07-02T21:54:41.000Z","2086","","[""cuda:0"",1]","1e-8","false","true","false","false","true","true","false","O1","1","0.00002","-1","runs/Jul02_21-54-34_ip-172-31-28-52","false","150","1","600","false","3","/home/ubuntu/huggingface/glue_data/Reuters/model_checkpoints5","true","8","8","500","26872","5","false","albert-large-v2","200","0","20.033333333333335","0.779639175257732","0.7907211571624598","0.00002","0.31293665289878847"
"xlnet-base-cased_37l5nskp","37l5nskp","xlnet-base-cased_37l5nskp","finished","-","antonmu","","2020-07-02T23:24:45.000Z","1846","","[""cuda:0"",1]","1e-8","false","true","false","false","true","true","false","O1","1","0.00002","-1","runs/Jul02_23-24-32_ip-172-31-28-52","false","150","1","600","false","3","/home/ubuntu/huggingface/glue_data/Reuters/model_checkpoints5","true","8","16","500","4135","1","false","xlnet-base-cased","200","0","200.33333333333337","0.7725515463917526","1.4575049903282185","0.00002","0.00104597065015696"
"roberta-base_388ahn0m","388ahn0m","roberta-base_388ahn0m","finished","-","antonmu","","2020-07-03T00:39:16.000Z","1407","","[""cuda:0"",1]","1e-8","false","true","false","false","true","true","false","O1","1","0.00002","-1","runs/Jul03_00-39-02_ip-172-31-28-52","false","150","1","600","false","3","/home/ubuntu/huggingface/glue_data/Reuters/model_checkpoints2","true","8","32","500","10347","1","false","roberta-base","200","0","300.5","0.7068298969072165","1.7320477607631193","0.00002","0.004826179592249294"
"bert-base-cased_38d7nsxh","38d7nsxh","bert-base-cased_38d7nsxh","finished","-","antonmu","","2020-07-03T01:23:43.000Z","1648","","[""cuda:0"",1]","1e-8","false","true","false","false","true","true","false","O1","1","0.00002","-1","runs/Jul03_01-23-31_ip-172-31-28-52","false","150","1","600","false","3","/home/ubuntu/huggingface/glue_data/Reuters/model_checkpoints5","true","8","32","500","98863","10","false","bert-base-cased","200","0","40.06666666666667","0.884020618556701","0.5349543085417796","0.00002","0.0487902935470144"
"roberta-base_3aqwcvjl","3aqwcvjl","roberta-base_3aqwcvjl","finished","-","antonmu","","2020-07-03T03:33:09.000Z","1688","","[""cuda:0"",1]","1e-8","false","true","false","false","true","true","false","O1","1","0.00002","-1","runs/Jul03_03-32-55_ip-172-31-28-52","false","150","1","600","false","3","/home/ubuntu/huggingface/glue_data/Reuters/model_checkpoints3","true","8","32","500","38581","5","false","roberta-base","200","0","75.125","0.8911082474226805","0.5535696956914725","0.00002","0.008819926753640175"
"albert-base-v2_3ayr21sm","3ayr21sm","albert-base-v2_3ayr21sm","finished","-","antonmu","","2020-07-03T02:53:31.000Z","1736","","[""cuda:0"",1]","1e-8","false","true","false","false","true","true","false","O1","1","0.00002","-1","runs/Jul03_02-53-24_ip-172-31-28-52","false","150","1","600","false","3","/home/ubuntu/huggingface/glue_data/Reuters/model_checkpoints2","true","8","32","500","25192","5","false","albert-base-v2","200","0","75.125","0.770618556701031","1.0752267496487529","0.00002","0.008012621346861124"
"roberta-base_3bhuxu0m","3bhuxu0m","roberta-base_3bhuxu0m","finished","-","antonmu","","2020-07-03T03:53:55.000Z","1749","","[""cuda:0"",1]","1e-8","false","true","false","false","true","true","false","O1","1","0.00002","-1","runs/Jul03_03-53-41_ip-172-31-28-52","false","150","1","600","false","3","/home/ubuntu/huggingface/glue_data/Reuters/model_checkpoints2","true","8","32","500","552","2","false","roberta-base","200","0","200.33333333333337","0.8002577319587629","1.014533370733261","0.00002","0.007644167489682635"
"albert-base-v2_3d7v1n00","3d7v1n00","albert-base-v2_3d7v1n00","finished","-","antonmu","","2020-07-02T22:19:18.000Z","1750","","[""cuda:0"",1]","1e-8","false","true","false","false","true","true","false","O1","1","0.00002","-1","runs/Jul02_22-19-11_ip-172-31-27-250","false","150","1","600","false","3","/home/ubuntu/hugging/glue_data/Reuters/model_checkpoints","true","8","32","500","28350","10","false","albert-base-v2","200","0","40.06666666666667","0.9033505154639176","0.3966692189887627","0.00002","0.024704534970223905"
"distilbert-base-cased_3dbnbqnm","3dbnbqnm","distilbert-base-cased_3dbnbqnm","finished","-","antonmu","","2020-07-02T22:46:40.000Z","712","","[""cuda:0"",1]","1e-8","false","true","false","false","true","true","false","O1","1","0.00002","-1","runs/Jul02_22-46-31_ip-172-31-28-52","false","150","1","600","false","3","/home/ubuntu/huggingface/glue_data/Reuters/model_checkpoints0","true","8","32","500","29990","1","false","distilbert-base-cased","200","0","300.5","0.6836340206185567","1.9433422803725164","0.00002","0.004425813474226743"
"roberta-base_3e4ofv8c","3e4ofv8c","roberta-base_3e4ofv8c","finished","-","antonmu","","2020-07-03T03:23:38.000Z","1750","","[""cuda:0"",1]","1e-8","false","true","false","false","true","true","false","O1","1","0.00002","-1","runs/Jul03_03-23-24_ip-172-31-28-52","false","150","1","600","false","3","/home/ubuntu/huggingface/glue_data/Reuters/model_checkpoints2","true","8","32","500","27337","2","false","roberta-base","200","0","200.33333333333337","0.8305412371134021","0.8802295890972787","0.00002","0.007043528722909589"
"distilbert-base-cased_3es23fdu","3es23fdu","distilbert-base-cased_3es23fdu","finished","-","antonmu","","2020-07-03T00:26:47.000Z","711","","[""cuda:0"",1]","1e-8","false","true","false","false","true","true","false","O1","1","0.00002","-1","runs/Jul03_00-26-38_ip-172-31-28-52","false","150","1","600","false","3","/home/ubuntu/huggingface/glue_data/Reuters/model_checkpoints0","true","8","32","500","66476","1","false","distilbert-base-cased","200","0","300.5","0.7036082474226805","1.7674066075651915","0.00002","0.004800058416246126"
"roberta-base_3f7inl28","3f7inl28","roberta-base_3f7inl28","finished","-","antonmu","","2020-07-02T22:49:00.000Z","1819","","[""cuda:0"",1]","1e-8","false","true","false","false","true","true","false","O1","1","0.00002","-1","runs/Jul02_22-48-43_ip-172-31-28-52","false","150","1","600","false","3","/home/ubuntu/huggingface/glue_data/Reuters/model_checkpoints3","true","8","32","500","30122","50","false","roberta-base","200","0","8.232876712328768","0.9677835051546392","0.1462758982304445","0.00002","0.028382109018663566"
"albert-base-v2_3h3i13y4","3h3i13y4","albert-base-v2_3h3i13y4","finished","-","antonmu","","2020-07-02T20:02:20.000Z","1870","","[""cuda:0"",1]","1e-8","false","true","false","false","true","true","false","O1","1","0.00002","-1","runs/Jul02_20-02-08_ip-172-31-28-52","false","150","1","600","false","3","/home/ubuntu/huggingface/glue_data/Reuters/model_checkpoints4","true","8","32","500","20126","100","false","albert-base-v2","200","0","4.116438356164384","0.958118556701031","0.17193818875809305","0.00002","0.11969921429951984"
"albert-base-v2_3hqckdgb","3hqckdgb","albert-base-v2_3hqckdgb","finished","-","antonmu","","2020-07-02T20:16:46.000Z","30579","","[""cuda:0"",1]","1e-8","false","true","false","false","true","true","false","O1","1","0.00002","-1","runs/Jul02_20-16-40_ip-172-31-28-52","false","150","1","600","false","3","/home/ubuntu/huggingface/glue_data/Reuters/model_checkpoints0","true","8","32","500","20999","1","false","albert-base-v2","200","0","300.5","0.6359536082474226","1.9308720664265229","0.00002","0.0016355980769731104"
"xlnet-base-cased_3j11z9vu","3j11z9vu","xlnet-base-cased_3j11z9vu","finished","-","antonmu","","2020-07-02T20:18:55.000Z","1843","","[""cuda:0"",1]","1e-8","false","true","false","false","true","true","false","O1","1","0.00002","-1","runs/Jul02_20-18-46_ip-172-31-27-250","false","150","1","600","false","3","/home/ubuntu/hugging/glue_data/Reuters/model_checkpoints","true","8","16","500","21124","5","false","xlnet-base-cased","200","0","40.06666666666667","0.904639175257732","0.46422189704536165","0.00002","0.003444417314603925"
"xlnet-base-cased_3j97mmkf","3j97mmkf","xlnet-base-cased_3j97mmkf","finished","-","antonmu","","2020-07-02T21:50:00.000Z","1933","","[""cuda:0"",1]","1e-8","false","true","false","false","true","true","false","O1","1","0.00002","-1","runs/Jul02_21-49-47_ip-172-31-28-52","false","150","1","600","false","3","/home/ubuntu/huggingface/glue_data/Reuters/model_checkpoints2","true","8","16","500","26586","50","false","xlnet-base-cased","200","0","4.116438356164384","0.961340206185567","0.15340033096750988","0.00002","0.09219584935655196"
"xlnet-base-cased_3nc89v3r","3nc89v3r","xlnet-base-cased_3nc89v3r","finished","-","antonmu","","2020-07-03T02:38:29.000Z","1903","","[""cuda:0"",1]","1e-8","false","true","false","false","true","true","false","O1","1","0.00002","-1","runs/Jul03_02-38-17_ip-172-31-28-52","false","150","1","600","false","3","/home/ubuntu/huggingface/glue_data/Reuters/model_checkpoints0","true","8","16","500","52794","5","false","xlnet-base-cased","200","0","40.06666666666667","0.8923969072164949","0.5391376464022803","0.00002","0.003568839232126872"
"xlm-roberta-base_3nhxfzb7","3nhxfzb7","xlm-roberta-base_3nhxfzb7","finished","-","antonmu","","2020-07-02T22:06:25.000Z","1140","","[""cuda:0"",1]","1e-8","false","true","false","false","true","true","false","O1","1","0.00002","-1","runs/Jul02_22-05-56_ip-172-31-28-52","false","150","1","600","false","3","/home/ubuntu/huggingface/glue_data/Reuters/model_checkpoints6","true","8","16","500","27555","100","false","xlm-roberta-base","200","0","2.058219178082192","0.9188144329896908","0.3614715098105755","0.00002","0.468711057237039"
"distilbert-base-cased_3pr2xo1n","3pr2xo1n","distilbert-base-cased_3pr2xo1n","finished","-","antonmu","","2020-07-03T03:34:42.000Z","832","","[""cuda:0"",1]","1e-8","false","true","false","false","true","true","false","O1","1","0.00002","-1","runs/Jul03_03-34-33_ip-172-31-28-52","false","150","1","600","false","3","/home/ubuntu/huggingface/glue_data/Reuters/model_checkpoints5","true","8","32","500","16858","2","false","distilbert-base-cased","200","0","200.33333333333337","0.7242268041237113","1.2680806379342815","0.00002","0.009626641599461435"
"bert-base-cased_3qs9upo2","3qs9upo2","bert-base-cased_3qs9upo2","finished","-","antonmu","","2020-07-03T01:40:19.000Z","1610","","[""cuda:0"",1]","1e-8","false","true","false","false","true","true","false","O1","1","0.00002","-1","runs/Jul03_01-40-07_ip-172-31-28-52","false","150","1","600","false","3","/home/ubuntu/huggingface/glue_data/Reuters/model_checkpoints7","true","8","32","500","65186","5","false","bert-base-cased","200","0","75.125","0.8569587628865979","0.7119244072855133","0.00002","0.01993723439052701"
"distilbert-base-cased_3qua30uj","3qua30uj","distilbert-base-cased_3qua30uj","finished","-","antonmu","","2020-07-02T23:24:48.000Z","874","","[""cuda:0"",1]","1e-8","false","true","false","false","true","true","false","O1","1","0.00002","-1","runs/Jul02_23-24-32_ip-172-31-28-52","false","150","1","600","false","3","/home/ubuntu/huggingface/glue_data/Reuters/model_checkpoints1","true","8","32","500","6459","50","false","distilbert-base-cased","200","0","8.232876712328768","0.9420103092783504","0.2920339529969029","0.00002","0.1734975378960371"
"distilbert-base-cased_3tek4crw","3tek4crw","distilbert-base-cased_3tek4crw","finished","-","antonmu","","2020-07-03T02:38:27.000Z","838","","[""cuda:0"",1]","1e-8","false","true","false","false","true","true","false","O1","1","0.00002","-1","runs/Jul03_02-38-17_ip-172-31-28-52","false","150","1","600","false","3","/home/ubuntu/huggingface/glue_data/Reuters/model_checkpoints2","true","8","32","500","52741","5","false","distilbert-base-cased","200","0","75.125","0.8273195876288659","0.7897606886078402","0.00002","0.023623476459955176"
"albert-base-v2_3uhcwqwi","3uhcwqwi","albert-base-v2_3uhcwqwi","finished","-","antonmu","","2020-07-03T01:33:36.000Z","1830","","[""cuda:0"",1]","1e-8","false","true","false","false","true","true","false","O1","1","0.00002","-1","runs/Jul03_01-33-29_ip-172-31-28-52","false","150","1","600","false","3","/home/ubuntu/huggingface/glue_data/Reuters/model_checkpoints4","true","8","32","500","84678","10","false","albert-base-v2","200","0","40.06666666666667","0.8704896907216495","0.5044058951520428","0.00002","0.01784734937051932"
"roberta-base_3unt85ah","3unt85ah","roberta-base_3unt85ah","finished","-","antonmu","","2020-07-02T22:48:44.000Z","1672","","[""cuda:0"",1]","1e-8","false","true","false","false","true","true","false","O1","1","0.00002","-1","runs/Jul02_22-48-29_ip-172-31-27-250","false","150","1","600","false","3","/home/ubuntu/hugging/glue_data/Reuters/model_checkpoints","true","8","32","500","30108","20","false","roberta-base","200","0","20.033333333333335","0.9619845360824744","0.1800838555257345","0.00002","0.014451475342114767"
"distilbert-base-cased_3vsc1czn","3vsc1czn","distilbert-base-cased_3vsc1czn","finished","-","antonmu","","2020-07-02T20:02:17.000Z","807","","[""cuda:0"",1]","1e-8","false","true","false","false","true","true","false","O1","1","0.00002","-1","runs/Jul02_20-02-08_ip-172-31-28-52","false","150","1","600","false","3","/home/ubuntu/huggingface/glue_data/Reuters/model_checkpoints1","true","8","32","500","20126","5","false","distilbert-base-cased","200","0","75.125","0.8389175257731959","0.6832936440700108","0.00002","0.024546698168851435"
"distilbert-base-cased_3wecfeil","3wecfeil","distilbert-base-cased_3wecfeil","finished","-","antonmu","","2020-07-03T00:23:33.000Z","900","","[""cuda:0"",1]","1e-8","false","true","false","false","true","true","false","O1","1","0.00002","-1","runs/Jul03_00-23-20_ip-172-31-28-52","false","150","1","600","false","3","/home/ubuntu/huggingface/glue_data/Reuters/model_checkpoints6","true","8","32","500","87250","50","false","distilbert-base-cased","200","0","8.232876712328768","0.922680412371134","0.35253892831273914","0.00002","0.20231389974554376"
"xlnet-base-cased_4pom0yls","4pom0yls","xlnet-base-cased_4pom0yls","finished","-","antonmu","","2020-07-02T21:17:08.000Z","1934","","[""cuda:0"",1]","1e-8","false","true","false","false","true","true","false","O1","1","0.00002","-1","runs/Jul02_21-16-55_ip-172-31-28-52","false","150","1","600","false","3","/home/ubuntu/huggingface/glue_data/Reuters/model_checkpoints2","true","8","16","500","24614","50","false","xlnet-base-cased","200","0","4.116438356164384","0.9664948453608248","0.14941858292854937","0.00002","0.06815378308296204"
"roberta-base_5408unfe","5408unfe","roberta-base_5408unfe","finished","-","antonmu","","2020-07-03T00:39:37.000Z","1740","","[""cuda:0"",1]","1e-8","false","true","false","false","true","true","false","O1","1","0.00002","-1","runs/Jul03_00-39-20_ip-172-31-28-52","false","150","1","600","false","3","/home/ubuntu/huggingface/glue_data/Reuters/model_checkpoints7","true","8","32","500","87991","50","false","roberta-base","200","0","8.232876712328768","0.9684278350515464","0.13462483836817987","0.00002","0.02977555134644111"
"bert-base-cased_543i6fwt","543i6fwt","bert-base-cased_543i6fwt","finished","-","antonmu","","2020-07-03T03:56:40.000Z","1602","","[""cuda:0"",1]","1e-8","false","true","false","false","true","true","false","O1","1","0.00002","-1","runs/Jul03_03-56-28_ip-172-31-28-52","false","150","1","600","false","3","/home/ubuntu/huggingface/glue_data/Reuters/model_checkpoints1","true","8","32","500","66522","5","false","bert-base-cased","200","0","75.125","0.8563144329896907","0.6260613074007723","0.00002","0.026706934425358972"
"albert-base-v2_5ei05gfo","5ei05gfo","albert-base-v2_5ei05gfo","finished","-","antonmu","","2020-07-02T21:19:03.000Z","1753","","[""cuda:0"",1]","1e-8","false","true","false","false","true","true","false","O1","1","0.00002","-1","runs/Jul02_21-18-56_ip-172-31-27-250","false","150","1","600","false","3","/home/ubuntu/hugging/glue_data/Reuters/model_checkpoints","true","8","32","500","24735","10","false","albert-base-v2","200","0","40.06666666666667","0.895618556701031","0.4005352878539832","0.00002","0.013082871879450977"
"distilbert-base-cased_5ljuxhby","5ljuxhby","distilbert-base-cased_5ljuxhby","finished","-","antonmu","","2020-07-02T23:54:50.000Z","838","","[""cuda:0"",1]","1e-8","false","true","false","false","true","true","false","O1","1","0.00002","-1","runs/Jul02_23-54-41_ip-172-31-28-52","false","150","1","600","false","3","/home/ubuntu/huggingface/glue_data/Reuters/model_checkpoints2","true","8","32","500","95810","5","false","distilbert-base-cased","200","0","75.125","0.8176546391752577","0.9120245272504914","0.00002","0.01637368700777491"
"albert-base-v2_5z6zqaus","5z6zqaus","albert-base-v2_5z6zqaus","finished","-","antonmu","","2020-07-02T20:56:43.000Z","1867","","[""cuda:0"",1]","1e-8","false","true","false","false","true","true","false","O1","1","0.00002","-1","runs/Jul02_20-56-34_ip-172-31-28-52","false","150","1","600","false","3","/home/ubuntu/huggingface/glue_data/Reuters/model_checkpoints6","true","8","32","500","23392","50","false","albert-base-v2","200","0","8.232876712328768","0.9600515463917526","0.20105866819005652","0.00002","0.06723872944712639"
"distilbert-base-cased_6pbibj0s","6pbibj0s","distilbert-base-cased_6pbibj0s","finished","-","antonmu","","2020-07-02T21:32:09.000Z","688","","[""cuda:0"",1]","1e-8","false","true","false","false","true","true","false","O1","1","0.00002","-1","runs/Jul02_21-32-00_ip-172-31-28-52","false","150","1","600","false","3","/home/ubuntu/huggingface/glue_data/Reuters/model_checkpoints1","true","8","32","500","25518","1","false","distilbert-base-cased","200","0","300.5","0.6829896907216495","1.6756783279868743","0.00002","0.007599320874239007"
"roberta-base_7i3q85bh","7i3q85bh","roberta-base_7i3q85bh","finished","-","antonmu","","2020-07-03T03:06:29.000Z","1651","","[""cuda:0"",1]","1e-8","false","true","false","false","true","true","false","O1","1","0.00002","-1","runs/Jul03_03-06-15_ip-172-31-28-52","false","150","1","600","false","3","/home/ubuntu/huggingface/glue_data/Reuters/model_checkpoints5","true","8","32","500","41712","2","false","roberta-base","200","0","200.33333333333337","0.8460051546391752","0.6619565935478997","0.00002","0.006646824494625132"
"roberta-base_8gj5ybkv","8gj5ybkv","roberta-base_8gj5ybkv","finished","-","antonmu","","2020-07-03T01:52:10.000Z","1653","","[""cuda:0"",1]","1e-8","false","true","false","false","true","true","false","O1","1","0.00002","-1","runs/Jul03_01-51-56_ip-172-31-28-52","false","150","1","600","false","3","/home/ubuntu/huggingface/glue_data/Reuters/model_checkpoints5","true","8","32","500","47203","20","false","roberta-base","200","0","20.033333333333335","0.9568298969072164","0.20949418950326665","0.00002","0.013400269448757171"
"distilbert-base-cased_9e8txq0v","9e8txq0v","distilbert-base-cased_9e8txq0v","finished","-","antonmu","","2020-07-03T01:46:59.000Z","814","","[""cuda:0"",1]","1e-8","false","true","false","false","true","true","false","O1","1","0.00002","-1","runs/Jul03_01-46-50_ip-172-31-28-52","false","150","1","600","false","3","/home/ubuntu/huggingface/glue_data/Reuters/model_checkpoints1","true","8","32","500","87498","5","false","distilbert-base-cased","200","0","75.125","0.8047680412371134","1.0060112490174695","0.00002","0.020037350586305062"
"albert-base-v2_abtw106q","abtw106q","albert-base-v2_abtw106q","finished","-","antonmu","","2020-07-03T03:37:33.000Z","1694","","[""cuda:0"",1]","1e-8","false","true","false","false","true","true","false","O1","1","0.00002","-1","runs/Jul03_03-37-26_ip-172-31-28-52","false","150","1","600","false","3","/home/ubuntu/huggingface/glue_data/Reuters/model_checkpoints7","true","8","32","500","53756","5","false","albert-base-v2","200","0","75.125","0.8202319587628866","0.7131595908059287","0.00002","0.011926326810692748"
"distilbert-base-cased_atqr5utd","atqr5utd","distilbert-base-cased_atqr5utd","finished","-","antonmu","","2020-07-02T23:24:43.000Z","859","","[""cuda:0"",1]","1e-8","false","true","false","false","true","true","false","O1","1","0.00002","-1","runs/Jul02_23-24-32_ip-172-31-28-52","false","150","1","600","false","3","/home/ubuntu/huggingface/glue_data/Reuters/model_checkpoints7","true","8","32","500","5929","20","false","distilbert-base-cased","200","0","20.033333333333335","0.9091494845360824","0.3932227537650423","0.00002","0.10622085702915986"
"albert-base-v2_buixnyz8","buixnyz8","albert-base-v2_buixnyz8","finished","-","antonmu","","2020-07-02T22:03:43.000Z","1779","","[""cuda:0"",1]","1e-8","false","true","false","false","true","true","false","O1","1","0.00002","-1","runs/Jul02_22-03-35_ip-172-31-28-52","false","150","1","600","false","3","/home/ubuntu/huggingface/glue_data/Reuters/model_checkpoints1","true","8","32","500","27414","20","false","albert-base-v2","200","0","20.033333333333335","0.9452319587628866","0.2401351112219476","0.00002","0.03073014895121257"
"distilbert-base-cased_desfh0ze","desfh0ze","distilbert-base-cased_desfh0ze","finished","-","antonmu","","2020-07-03T00:25:52.000Z","833","","[""cuda:0"",1]","1e-8","false","true","false","false","true","true","false","O1","1","0.00002","-1","runs/Jul03_00-25-42_ip-172-31-28-52","false","150","1","600","false","3","/home/ubuntu/huggingface/glue_data/Reuters/model_checkpoints5","true","8","32","500","13702","10","false","distilbert-base-cased","200","0","40.06666666666667","0.8775773195876289","0.5005008754963728","0.00002","0.03517045024161537"
"distilbert-base-cased_dj4k3gcf","dj4k3gcf","distilbert-base-cased_dj4k3gcf","finished","-","antonmu","","2020-07-03T01:45:09.000Z","887","","[""cuda:0"",1]","1e-8","false","true","false","false","true","true","false","O1","1","0.00002","-1","runs/Jul03_01-44-59_ip-172-31-28-52","false","150","1","600","false","3","/home/ubuntu/huggingface/glue_data/Reuters/model_checkpoints0","true","8","32","500","82167","10","false","distilbert-base-cased","200","0","40.06666666666667","0.8891752577319587","0.46404583529405985","0.00002","0.03245640741040309"
"albert-large-v2_dq1s3h5i","dq1s3h5i","albert-large-v2_dq1s3h5i","finished","-","antonmu","","2020-07-02T20:02:22.000Z","31454","","[""cuda:0"",1]","1e-8","false","true","false","false","true","true","false","O1","1","0.00002","-1","runs/Jul02_20-02-08_ip-172-31-28-52","false","150","1","600","false","3","/home/ubuntu/huggingface/glue_data/Reuters/model_checkpoints3","true","8","8","500","20126","10","false","albert-large-v2","200","0","10.186440677966102","0.8640463917525774","0.5405627866227602","0.00002","0.3500743482510249"
"distilbert-base-cased_ejr9p9y1","ejr9p9y1","distilbert-base-cased_ejr9p9y1","finished","-","antonmu","","2020-07-03T01:02:29.000Z","874","","[""cuda:0"",1]","1e-8","false","true","false","false","true","true","false","O1","1","0.00002","-1","runs/Jul03_01-02-16_ip-172-31-28-52","false","150","1","600","false","3","/home/ubuntu/huggingface/glue_data/Reuters/model_checkpoints1","true","8","32","500","45918","50","false","distilbert-base-cased","200","0","8.232876712328768","0.928479381443299","0.34403370966001884","0.00002","0.2321334959069888"
"roberta-base_g0vu1yvi","g0vu1yvi","roberta-base_g0vu1yvi","finished","-","antonmu","","2020-07-03T00:33:32.000Z","1693","","[""cuda:0"",1]","1e-8","false","true","false","false","true","true","false","O1","1","0.00002","-1","runs/Jul03_00-33-17_ip-172-31-28-52","false","150","1","600","false","3","/home/ubuntu/huggingface/glue_data/Reuters/model_checkpoints1","true","8","32","500","64143","20","false","roberta-base","200","0","20.033333333333335","0.9568298969072164","0.21081135229966075","0.00002","0.01584496761361758"
"bert-base-cased_gxvlpgur","gxvlpgur","bert-base-cased_gxvlpgur","finished","-","antonmu","","2020-07-03T01:16:28.000Z","1777","","[""cuda:0"",1]","1e-8","false","true","false","false","true","true","false","O1","1","0.00002","-1","runs/Jul03_01-16-16_ip-172-31-28-52","false","150","1","600","false","3","/home/ubuntu/huggingface/glue_data/Reuters/model_checkpoints3","true","8","32","500","54968","2","false","bert-base-cased","200","0","200.33333333333337","0.7268041237113402","1.4183119148323216","0.00002","0.013084160815924404"
"roberta-base_h61c6895","h61c6895","roberta-base_h61c6895","finished","-","antonmu","","2020-07-02T23:39:35.000Z","1699","","[""cuda:0"",1]","1e-8","false","true","false","false","true","true","false","O1","1","0.00002","-1","runs/Jul02_23-39-21_ip-172-31-28-52","false","150","1","600","false","3","/home/ubuntu/huggingface/glue_data/Reuters/model_checkpoints7","true","8","32","500","2206","10","false","roberta-base","200","0","40.06666666666667","0.9368556701030928","0.3043425099290523","0.00002","0.012636461133758228"
"bert-base-uncased_h6wr3zq7","h6wr3zq7","bert-base-uncased_h6wr3zq7","finished","-","antonmu","","2020-07-02T21:46:24.000Z","1788","","[""cuda:0"",1]","1e-8","false","true","false","false","true","true","false","O1","1","0.00002","-1","runs/Jul02_21-45-59_ip-172-31-28-52","false","150","1","600","false","3","/home/ubuntu/huggingface/glue_data/Reuters/model_checkpoints0","true","8","32","500","26358","100","false","bert-base-uncased","200","0","4.116438356164384","0.9755154639175256","0.15371670704527","0.00002","0.1163951823612054"
"distilbert-base-cased_hurwbfjx","hurwbfjx","distilbert-base-cased_hurwbfjx","finished","-","antonmu","","2020-07-03T04:09:22.000Z","841","","[""cuda:0"",1]","1e-8","false","true","false","false","true","true","false","O1","1","0.00002","-1","runs/Jul03_04-09-13_ip-172-31-28-52","false","150","1","600","false","3","/home/ubuntu/huggingface/glue_data/Reuters/model_checkpoints4","true","8","32","500","16941","5","false","distilbert-base-cased","200","0","75.125","0.8228092783505154","0.8328445897888892","0.00002","0.01976602105734249"
"xlnet-base-cased_idonk8m3","idonk8m3","xlnet-base-cased_idonk8m3","finished","-","antonmu","","2020-07-03T02:52:37.000Z","1870","","[""cuda:0"",1]","1e-8","false","true","false","false","true","true","false","O1","1","0.00002","-1","runs/Jul03_02-52-26_ip-172-31-28-52","false","150","1","600","false","3","/home/ubuntu/huggingface/glue_data/Reuters/model_checkpoints1","true","8","16","500","53379","1","false","xlnet-base-cased","200","0","200.33333333333337","0.7003865979381443","1.763647172715246","0.00002","0.0009664752338236818"
"albert-large-v2_ih1cd8ma","ih1cd8ma","albert-large-v2_ih1cd8ma","finished","-","antonmu","","2020-07-02T21:28:24.000Z","2227","","[""cuda:0"",1]","1e-8","false","true","false","false","true","true","false","O1","1","0.00002","-1","runs/Jul02_21-28-16_ip-172-31-28-52","false","150","1","600","false","3","/home/ubuntu/huggingface/glue_data/Reuters/model_checkpoints6","true","8","8","500","25294","20","false","albert-large-v2","200","0","5.136752136752137","0.884020618556701","0.4374764699911334","0.00002","0.40012438853581744"
"bert-base-cased_ipgrjfjt","ipgrjfjt","bert-base-cased_ipgrjfjt","finished","-","antonmu","","2020-07-03T03:11:02.000Z","1662","","[""cuda:0"",1]","1e-8","false","true","false","false","true","true","false","O1","1","0.00002","-1","runs/Jul03_03-10-50_ip-172-31-28-52","false","150","1","600","false","3","/home/ubuntu/huggingface/glue_data/Reuters/model_checkpoints4","true","8","32","500","94373","5","false","bert-base-cased","200","0","75.125","0.8060567010309279","0.8422424075836988","0.00002","0.03106347981840372"
"bert-base-cased_m1mjrrp7","m1mjrrp7","bert-base-cased_m1mjrrp7","finished","-","antonmu","","2020-07-03T01:17:49.000Z","1689","","[""cuda:0"",1]","1e-8","false","true","false","false","true","true","false","O1","1","0.00002","-1","runs/Jul03_01-17-36_ip-172-31-28-52","false","150","1","600","false","3","/home/ubuntu/huggingface/glue_data/Reuters/model_checkpoints1","true","8","32","500","52868","20","false","bert-base-cased","200","0","20.033333333333335","0.9246134020618556","0.3642278092423666","0.00002","0.10077104916175209"
"xlnet-base-cased_nl9dchv2","nl9dchv2","xlnet-base-cased_nl9dchv2","finished","-","antonmu","","2020-07-03T04:01:11.000Z","1830","","[""cuda:0"",1]","1e-8","false","true","false","false","true","true","false","O1","1","0.00002","-1","runs/Jul03_04-01-01_ip-172-31-28-52","false","150","1","600","false","3","/home/ubuntu/huggingface/glue_data/Reuters/model_checkpoints5","true","8","16","500","953","2","false","xlnet-base-cased","200","0","100.16666666666669","0.7815721649484536","1.2062875865814613","0.00002","0.0015483534650411457"
"distilbert-base-cased_nu0s43y4","nu0s43y4","distilbert-base-cased_nu0s43y4","finished","-","antonmu","","2020-07-03T02:38:30.000Z","811","","[""cuda:0"",1]","1e-8","false","true","false","false","true","true","false","O1","1","0.00002","-1","runs/Jul03_02-38-16_ip-172-31-28-52","false","150","1","600","false","3","/home/ubuntu/huggingface/glue_data/Reuters/model_checkpoints1","true","8","32","500","50218","5","false","distilbert-base-cased","200","0","75.125","0.8260309278350515","0.760645198453333","0.00002","0.02281219798295448"
"distilbert-base-cased_oa879s4x","oa879s4x","distilbert-base-cased_oa879s4x","finished","-","antonmu","","2020-07-03T01:00:42.000Z","899","","[""cuda:0"",1]","1e-8","false","true","false","false","true","true","false","O1","1","0.00002","-1","runs/Jul03_01-00-32_ip-172-31-28-52","false","150","1","600","false","3","/home/ubuntu/huggingface/glue_data/Reuters/model_checkpoints3","true","8","32","500","12469","10","false","distilbert-base-cased","200","0","40.06666666666667","0.8692010309278351","0.5956596616156322","0.00002","0.0464633184671402"
"xlnet-base-cased_opx5d6hp","opx5d6hp","xlnet-base-cased_opx5d6hp","finished","-","antonmu","","2020-07-03T04:14:29.000Z","1900","","[""cuda:0"",1]","1e-8","false","true","false","false","true","true","false","O1","1","0.00002","-1","runs/Jul03_04-14-19_ip-172-31-28-52","false","150","1","600","false","3","/home/ubuntu/huggingface/glue_data/Reuters/model_checkpoints0","true","8","16","500","81268","5","false","xlnet-base-cased","200","0","40.06666666666667","0.8717783505154639","0.674196703225067","0.00002","0.0030490601311127345"
"albert-base-v2_q7loaxde","q7loaxde","albert-base-v2_q7loaxde","finished","-","antonmu","","2020-07-03T01:46:34.000Z","1856","","[""cuda:0"",1]","1e-8","false","true","false","false","true","true","false","O1","1","0.00002","-1","runs/Jul03_01-46-27_ip-172-31-28-52","false","150","1","600","false","3","/home/ubuntu/huggingface/glue_data/Reuters/model_checkpoints3","true","8","32","500","55649","20","false","albert-base-v2","200","0","20.033333333333335","0.9355670103092784","0.27237780223187713","0.00002","0.03293738548954328"
"distilbert-base-cased_qemmhop1","qemmhop1","distilbert-base-cased_qemmhop1","finished","-","antonmu","","2020-07-03T04:23:43.000Z","839","","[""cuda:0"",1]","1e-8","false","true","false","false","true","true","false","O1","1","0.00002","-1","runs/Jul03_04-23-34_ip-172-31-28-52","false","150","1","600","false","3","/home/ubuntu/huggingface/glue_data/Reuters/model_checkpoints2","true","8","32","500","29230","5","false","distilbert-base-cased","200","0","75.125","0.803479381443299","0.8786336278024408","0.00002","0.02076798220165074"
"distilbert-base-cased_qo2ethhv","qo2ethhv","distilbert-base-cased_qo2ethhv","finished","-","antonmu","","2020-07-02T21:45:12.000Z","919","","[""cuda:0"",1]","1e-8","false","true","false","false","true","true","false","O1","1","0.00002","-1","runs/Jul02_21-44-59_ip-172-31-28-52","false","150","1","600","false","3","/home/ubuntu/huggingface/glue_data/Reuters/model_checkpoints3","true","8","32","500","26297","50","false","distilbert-base-cased","200","0","8.232876712328768","0.9362113402061856","0.32600963983646375","0.00002","0.19375617360075317"
"xlm-roberta-base_rfhp0isq","rfhp0isq","xlm-roberta-base_rfhp0isq","finished","-","antonmu","","2020-07-02T21:44:30.000Z","1119","","[""cuda:0"",1]","1e-8","false","true","false","false","true","true","false","O1","1","0.00002","-1","runs/Jul02_21-44-02_ip-172-31-28-52","false","150","1","600","false","3","/home/ubuntu/huggingface/glue_data/Reuters/model_checkpoints1","true","8","16","500","26241","100","false","xlm-roberta-base","200","0","2.058219178082192","0.898840206185567","0.4016446447403161","0.00002","0.47571535368760426"
"roberta-base_rr7jjwji","rr7jjwji","roberta-base_rr7jjwji","finished","-","antonmu","","2020-07-02T23:53:20.000Z","1747","","[""cuda:0"",1]","1e-8","false","true","false","false","true","true","false","O1","1","0.00002","-1","runs/Jul02_23-53-05_ip-172-31-28-52","false","150","1","600","false","3","/home/ubuntu/huggingface/glue_data/Reuters/model_checkpoints6","true","8","32","500","35358","20","false","roberta-base","200","0","20.033333333333335","0.9594072164948454","0.20433163857951608","0.00002","0.014738682607809705"
"albert-base-v2_s269ljqj","s269ljqj","albert-base-v2_s269ljqj","finished","-","antonmu","","2020-07-03T03:39:23.000Z","1737","","[""cuda:0"",1]","1e-8","false","true","false","false","true","true","false","O1","1","0.00002","-1","runs/Jul03_03-39-16_ip-172-31-28-52","false","150","1","600","false","3","/home/ubuntu/huggingface/glue_data/Reuters/model_checkpoints4","true","8","32","500","53747","5","false","albert-base-v2","200","0","75.125","0.7880154639175257","0.8816677792785094","0.00002","0.010636243603657933"
"roberta-base_tuwgwyqn","tuwgwyqn","roberta-base_tuwgwyqn","finished","-","antonmu","","2020-07-03T03:51:59.000Z","1737","","[""cuda:0"",1]","1e-8","false","true","false","false","true","true","false","O1","1","0.00002","-1","runs/Jul03_03-51-45_ip-172-31-28-52","false","150","1","600","false","3","/home/ubuntu/huggingface/glue_data/Reuters/model_checkpoints6","true","8","32","500","44902","2","false","roberta-base","200","0","200.33333333333337","0.8479381443298969","0.7518174079890104","0.00002","0.007713042457277576"
"roberta-base_v1o1h20h","v1o1h20h","roberta-base_v1o1h20h","finished","-","antonmu","","2020-07-03T02:38:31.000Z","1646","","[""cuda:0"",1]","1e-8","false","true","false","false","true","true","false","O1","1","0.00002","-1","runs/Jul03_02-38-17_ip-172-31-28-52","false","150","1","600","false","3","/home/ubuntu/huggingface/glue_data/Reuters/model_checkpoints5","true","8","32","500","52609","2","false","roberta-base","200","0","200.33333333333337","0.8189432989690721","0.9856360755937617","0.00002","0.006911114311466614"
"xlnet-base-cased_w7npa07m","w7npa07m","xlnet-base-cased_w7npa07m","finished","-","antonmu","","2020-07-02T21:13:57.000Z","1897","","[""cuda:0"",1]","1e-8","false","true","false","false","true","true","false","O1","1","0.00002","-1","runs/Jul02_21-13-46_ip-172-31-28-52","false","150","1","600","false","3","/home/ubuntu/huggingface/glue_data/Reuters/model_checkpoints0","true","8","16","500","24425","5","false","xlnet-base-cased","200","0","40.06666666666667","0.8853092783505154","0.5488305600340834","0.00002","0.0030462375616965194"
"albert-base-v2_y2kggzy0","y2kggzy0","albert-base-v2_y2kggzy0","finished","-","antonmu","","2020-07-03T02:38:24.000Z","1473","","[""cuda:0"",1]","1e-8","false","true","false","false","true","true","false","O1","1","0.00002","-1","runs/Jul03_02-38-17_ip-172-31-28-52","false","150","1","600","false","3","/home/ubuntu/huggingface/glue_data/Reuters/model_checkpoints3","true","8","32","500","52634","1","false","albert-base-v2","200","0","300.5","0.6720360824742269","1.3248518130828424","0.00002","0.002266359895778199"
"distilbert-base-cased_y78v2qfp","y78v2qfp","distilbert-base-cased_y78v2qfp","finished","-","antonmu","","2020-07-02T22:33:15.000Z","903","","[""cuda:0"",1]","1e-8","false","true","false","false","true","true","false","O1","1","0.00002","-1","runs/Jul02_22-33-04_ip-172-31-28-52","false","150","1","600","false","3","/home/ubuntu/huggingface/glue_data/Reuters/model_checkpoints3","true","8","32","500","29183","20","false","distilbert-base-cased","200","0","20.033333333333335","0.9213917525773196","0.35355761877654757","0.00002","0.09485195224483808"
"bert-base-cased_zc76g93s","zc76g93s","bert-base-cased_zc76g93s","finished","-","antonmu","","2020-07-02T20:02:36.000Z","1389","","[""cuda:0"",1]","1e-8","false","true","false","false","true","true","false","O1","1","0.00002","-1","runs/Jul02_20-02-08_ip-172-31-28-52","false","150","1","600","false","3","/home/ubuntu/huggingface/glue_data/Reuters/model_checkpoints6","true","8","32","500","20126","1","false","bert-base-cased","200","0","300.5","0.6314432989690721","1.932852584676644","0.00002","0.007757222739358743"